function testGreaterOrEqual(val) {
  if (val >= 20) {  // Change this line
    return "20 or Over";
  }

  if (val >= 10) {  // Change this line
    return "10 or Over";
  }

  return "Less than 10";
}

testGreaterOrEqual(30);
